<svg width="1260" height="1402" viewBox="0 0 1260 1402" fill="none" xmlns="http://www.w3.org/2000/svg">
<g filter="url(#filter0_d_50_1182)">
<path d="M1119.5 637.78C1168.17 665.878 1168.17 736.122 1119.5 764.22L213.5 1287.3C164.833 1315.4 104 1280.27 104 1224.08V177.921C104 121.725 164.833 86.6031 213.5 114.701L1119.5 637.78Z" fill="url(#paint0_linear_50_1182)"/>
</g>
<defs>
<filter id="filter0_d_50_1182" x="0" y="0.811737" width="1260" height="1400.38" filterUnits="userSpaceOnUse" color-interpolation-filters="sRGB">
<feFlood flood-opacity="0" result="BackgroundImageFix"/>
<feColorMatrix in="SourceAlpha" type="matrix" values="0 0 0 0 0 0 0 0 0 0 0 0 0 0 0 0 0 0 127 0" result="hardAlpha"/>
<feMorphology radius="4" operator="dilate" in="SourceAlpha" result="effect1_dropShadow_50_1182"/>
<feOffset/>
<feGaussianBlur stdDeviation="50"/>
<feComposite in2="hardAlpha" operator="out"/>
<feColorMatrix type="matrix" values="0 0 0 0 0.85098 0 0 0 0 0.74902 0 0 0 0 0.180392 0 0 0 1 0"/>
<feBlend mode="normal" in2="BackgroundImageFix" result="effect1_dropShadow_50_1182"/>
<feBlend mode="normal" in="SourceGraphic" in2="effect1_dropShadow_50_1182" result="shape"/>
</filter>
<linearGradient id="paint0_linear_50_1182" x1="1229" y1="701" x2="-271" y2="701" gradientUnits="userSpaceOnUse">
<stop stop-color="#FDE68A"/>
<stop offset="1" stop-color="#F59E0B"/>
</linearGradient>
</defs>
</svg>
